<svg width="68" height="69" viewBox="0 0 68 69" fill="none" xmlns="http://www.w3.org/2000/svg">
<path d="M18.0856 14.232C19.6413 15.2143 21.431 15.7627 23.2666 15.8195C24.7414 15.8502 26.1823 16.2842 27.4316 17.0743L28.6372 15.0553C27.0815 14.0731 25.2917 13.5246 23.4562 13.4678C21.9813 13.4372 20.5405 13.0031 19.2912 12.2131L18.0856 14.232ZM21.7025 8.17523C22.9517 8.96526 24.3926 9.39932 25.8675 9.42995C27.703 9.48681 29.4927 10.0352 31.0485 11.0175L29.8428 13.0364C28.5936 12.2464 27.1527 11.8123 25.6778 11.7817C23.8423 11.7248 22.0526 11.1764 20.4969 10.1941L21.7025 8.17523ZM16.8799 16.2509C18.1292 17.0409 19.57 17.475 21.0449 17.5056C22.8805 17.5625 24.6702 18.1109 26.2259 19.0932L25.0203 21.1121C23.771 20.3221 22.3302 19.888 20.8553 19.8574C19.0197 19.8005 17.23 19.2521 15.6743 18.2698L16.8799 16.2509ZM38.0096 36.3461C33.7546 32.5543 29.696 28.5491 25.8497 24.3463L34.2892 10.2139C34.2892 10.2139 49.9286 14.0755 56.0338 17.7214C58.7471 19.352 60.7791 21.9063 61.7506 24.9076C62.7221 27.9089 62.5666 31.1522 61.3133 34.0321C60.0599 36.9121 57.7943 39.232 54.9392 40.5589C52.0841 41.8858 48.8347 42.129 45.7972 41.2432L36.5554 52.6506L34.5204 51.4353C33.8643 52.349 32.9974 53.0917 31.9919 53.6013C30.9863 54.1109 29.8714 54.3728 28.74 54.3651C27.4633 54.3581 26.2085 54.6781 25.096 55.2943C23.9836 55.9105 23.0507 56.8023 22.3869 57.884L20.3518 56.6687C21.1916 55.2834 22.3682 54.1325 23.7739 53.3212C25.1796 52.5099 26.7695 52.0641 28.3983 52.0247C30.4859 51.765 31.7257 51.492 32.4853 50.22L30.4502 49.0047L38.0096 36.3461ZM46.3887 33.8727C47.3949 34.4736 48.5554 34.765 49.7232 34.7101C50.8911 34.6551 52.0139 34.2562 52.9498 33.5639C53.8856 32.8716 54.5924 31.9169 54.9808 30.8206C55.3691 29.7243 55.4216 28.5356 55.1316 27.4048C54.8416 26.274 54.2222 25.252 53.3515 24.4678C52.4809 23.6837 51.3983 23.1728 50.2405 22.9996C49.0827 22.8265 47.9018 22.9989 46.847 23.4951C45.7923 23.9913 44.9112 24.7889 44.3151 25.7872C43.5157 27.1258 43.2851 28.7297 43.6739 30.246C44.0628 31.7624 45.0393 33.0669 46.3887 33.8727Z" fill="#FF3E79"/>
</svg>
